{
    "name": "SDL Workspace - Duet",
    "context": ".",
    "dockerFile": "./container/Dockerfile",
    "settings": {
        "terminal.integrated.shell.linux": "/bin/bash"
    },
    "runArgs": [
        "--env=DISPLAY",
        "--env=QT_X11_NO_MITSHM=1",
        "--volume=/tmp/.X11-unix:/tmp/.X11-unix:rw",
        "--device=/dev/dri",
        "--device=/dev/snd"
    ],
    "containerUser": "dev",
    "extensions": [
        "ms-vscode.cpptools",
        "ms-vscode.cmake-tools",
        "amiralizadeh9480.cpp-helper",
        "aaron-bond.better-comments"
    ],
    "forwardPorts": []
}